{
    "patrons":
    [
        {
            "name": "Blue Systems",
            "logo": "/images/supportingmembers/bluesystems.png",
            "description": "<p>Liberating Software. We work on getting KDE software ready for your devices.</p>",
            "url": "http://www.blue-systems.com/"
        },
        {
            "name": "The Qt Company",
            "logo": "/images/supportingmembers/QtCompany.png",
            "description": "<p>Our company's name is The Qt Company and we are most recognized and active contributor to Qt Project. We are currently maintaining the commercial rights regarding Qt and working in close co-operation to maintain Qt as open source ecosystem. As part of our company we also offer services around Qt framework which would be natural fit to KDE e.V. due the fact that KDE platform is build using Qt framework.</p>",
            "url": "https://www.qt.io/qt-consulting/"
        },
        {
            "name": "enioka Haute Couture",
            "logo": "/images/supportingmembers/enioka.png",
            "description": "<p>Businesses of all kinds have become highly dependent on their IT systems. And yet, many of them have lost control of this essential part of their assets.</p> <p>enioka Haute Couture specializes in mastering complex software development, be it because of the domain, the organization or the timing of the project.</p> <p>We work in close collaboration with your own teams to build software tailored to your needs. And if we're developing it ourselves, we go the extra mile to make sure you will keep it under control. We will also help your teams adopt the right organization, technologies and tools. Finally, every time it is suitable, we can help you setup Free and Open Source Software projects or interact with existing ones.</p> <p>With enioka Haute Couture, you have a trusted provider who facilitates your development needs while keeping full control of your systems. No more vendor or service provider lock-in.</p>",
            "url": "https://hc.enioka.com/en/"
        }
    ],
    "supporters":
    [
        {
            "name": "KDAB",
            "logo": "/images/supportingmembers/kdab.png",
            "description": "<p>KDAB is the world's leading software consultancy for architecture, development and design of Qt, C++ and OpenGL applications across desktop, embedded and mobile platforms. KDAB experts build run-times, mix native and web technologies, solve hardware stack performance issues and porting problems for hundreds of customers, many among the Fortune 500.</p> <p>KDAB’s founder, Matthias Kalle Dalheimer was one of KDE’s first contributors and was president of KDE e.V. from 2002 to 2005. KDAB continues to be a key supporter of the KDE project, as well as being a major independent contributor to Qt and the driving force behind Qt 3D.</p> <p>KDAB’s extensive experience in creating, debugging, profiling and porting complex applications, has led to the development of its acclaimed free tools, such as GammaRay, Heaptrack and Hotspot that help developers worldwide to deliver successful projects. KDAB is the market leader in training for Qt, OpenGL, modern C++ and much more.</p>",
            "url": "https://www.kdab.com/"
        }
    ],
    "other":
    [
        {
            "name": "Woboq GmbH",
            "logo": "/images/consultants/woboq.svg",
            "description": "<p>Woboq is a company offering services around Qt. Including bugfixes and feature within Qt or other applications.</p>",
            "url": "https://woboq.com/"
        },
        {
            "name": "vizZzion.com (Sebastian Kügler)",
            "logo": "/images/consultants/vizZzion.png",
            "description": "<p>I am an independent technical consultant specialized in software developement with Qt, KDE and Linux and embedded systems, available for hire to help developing and improving your products. I am proficient in programming languages such as C++, Python, JavaScript and a few others.</p><p>With more than 15 years of experience with Qt, Linux and working in agile software teams, I combine deep technical expertise with outstanding communication skills and a clear head and structured approach to solving technical problems.</p>",
            "url": "https://vizzzion.org/blog/consultancy/"
        },
        {
            "name": "Endocode AG",
            "logo": "/images/consultants/endocode.png",
            "description": "<p>Endocode AG is an employee-owned, software engineering company from Berlin. Open Source is our heart and soul. Endocode’s co-founder, Mirko Boehm has been a contributor to the KDE project since 1997. He was a board member of the KDE e.V. from 1999 to 2006 and continues to contribute to the ongoing development of KDE and the work of the Free Software Foundation Europe. His focus lies on governance and copyright issues.</p> <p> Endocode focuses on modern software engineering that leverages Open Source tooling and methodologies, such as cloud technology, DevOps methods and tools as well as CI integrated Open Source compliance. We create environments & platforms on private and public clouds to enable fast and reliable software delivery.</p> <p> As Google Cloud Partner we support companies in leveraging the Google Cloud Platform to it’s fullest abilities.</p>",
            "url": "https://endocode.com/"
        },
        {
            "name": "Rohan Garg",
            "description": "<p>I am a software consultant who specializes in open source technologies. I've worked in the open source software industry for the past 10 years with communities such as KDE, Debian and Ubuntu. I have extensive experience with technologies such as Qt, Debian packaging, Chef, Jenkins and have worked with service providers such as AWS and Digital Ocean.</p><p>A large chunk of my recent work involved building automation to help shorten time-to-market for embedded products built with KDE technologies.</p>",
            "url": "rohan@garg.io"
        },
        {
            "name": "CNOSSOS / Adriaan de Groot",
            "logo": "/images/consultants/cnossos.png",
            "description": "<p>I am a software consultant who specializes in Free Software development, with 20 years of experience inside the KDE community. I have worked on communications protocols, applications, licensing, system installers and packaging across a wide range of (Free Software) operating systems. Available for short-term part-time contracts, remote preferred.</p>",
            "url": "https://cnossos.nl/"
        }
    ]
}
